…
``` r
d <- bind_rows(dA %>% add_column(Exchange="A"), dB %>% add_column(Exchange="B"))
d
```

    ## # A tibble: 100 x 6
    ##         Mon       Tue      Wed       Thu       Fri Exchange
    ##       <dbl>     <dbl>    <dbl>     <dbl>     <dbl> <chr>   
    ##  1 -0.00068 -0.00091  -0.00076 -0.00035   0.00006  A       
    ##  2  0.00006 -0.00035   0.00046  0.00059   0.00044  A       
    ##  3 -0.00004  0.00048  -0.0004  -0.00002   0.00062  A       
    ##  4  0.00031 -0.000280  0.00087 -0.00048   0.000140 A       
    ##  5 -0.00092  0.00035   0.00081 -0.00054  -0.00094  A       
    ##  6 -0.00086  0.00083  -0.0004  -0.00035  -0.000140 A       
    ##  7 -0.00087  0.0008    0.00044  0.00053   0.00009  A       
    ##  8  0.00062 -0.00008   0.0005  -0.000150  0.00071  A       
    ##  9  0.00002  0.0008   -0.00068  0.00046   0.0004   A       
    ## 10 -0.00095  0.000130 -0.00059  0.00033   0.0001   A       
    ## # … with 90 more rows

``` r
d_long <- d %>% pivot_longer(Mon:Fri, names_to="Weekday", values_to="Return")
d_long
```

    ## # A tibble: 500 x 3
    ##    Exchange Weekday   Return
    ##    <chr>    <chr>      <dbl>
    ##  1 A        Mon     -0.00068
    ##  2 A        Tue     -0.00091
    ##  3 A        Wed     -0.00076
    ##  4 A        Thu     -0.00035
    ##  5 A        Fri      0.00006
    ##  6 A        Mon      0.00006
    ##  7 A        Tue     -0.00035
    ##  8 A        Wed      0.00046
    ##  9 A        Thu      0.00059
    ## 10 A        Fri      0.00044
    ## # … with 490 more rows
…
``` r
d_long
```

    ## # A tibble: 500 x 3
    ##    Exchange Weekday   Return
    ##    <chr>    <chr>      <dbl>
    ##  1 A        Mon     -0.00068
    ##  2 A        Tue     -0.00091
    ##  3 A        Wed     -0.00076
    ##  4 A        Thu     -0.00035
    ##  5 A        Fri      0.00006
    ##  6 A        Mon      0.00006
    ##  7 A        Tue     -0.00035
    ##  8 A        Wed      0.00046
    ##  9 A        Thu      0.00059
    ## 10 A        Fri      0.00044
    ## # … with 490 more rows
…
